[
    {
        "id": 1,
        "name": "BRONCOS",
        "year": 2015,
        "published_at": "2015-08-05T08:40:51.620Z",
        "image_url_logo": "http://nrl.ourpreviewdomain.com/dist/api/images/teams/BRO_TH.jpg",
        "image_url_bg": "http://nrl.ourpreviewdomain.com/dist/api/images/broncos_bg.jpg",
        "winning_images": [
          {
            "id": 1,
            "preview_url": "http://nrl.ourpreviewdomain.com/dist/api/images/thumbnails/BRONCOS/WINNERS/BRO_W01_TH.jpg",
            "full_url": "http://nrl.ourpreviewdomain.com/dist/api/images/broncos_w01.png"
          },
          {
            "id": 2,
            "preview_url": "http://nrl.ourpreviewdomain.com/dist/api/images/thumbnails/BRONCOS/WINNERS/BRO_W02_TH.jpg",
            "full_url": "http://nrl.ourpreviewdomain.com/dist/api/images/broncos_w02.png"
          },
          {
            "id": 3,
            "preview_url": "http://nrl.ourpreviewdomain.com/dist/api/images/thumbnails/BRONCOS/WINNERS/BRO_W03_TH.jpg",
            "full_url": "http://nrl.ourpreviewdomain.com/dist/api/images/broncos_w03.png"
          },
          {
            "id": 4,
            "preview_url": "http://nrl.ourpreviewdomain.com/dist/api/images/thumbnails/BRONCOS/WINNERS/BRO_W04_TH.jpg",
            "full_url": "http://nrl.ourpreviewdomain.com/dist/api/images/broncos_w04.png"
          },
          {
            "id": 5,
            "preview_url": "http://nrl.ourpreviewdomain.com/dist/api/images/thumbnails/BRONCOS/WINNERS/BRO_W05_TH.jpg",
            "full_url": "http://nrl.ourpreviewdomain.com/dist/api/images/broncos_w05.png"
          }
        ],
        "losing_images": [
          {
            "id": 13,
            "preview_url": "http://nrl.ourpreviewdomain.com/dist/api/images/thumbnails/BRONCOS/LOSERS/BRO_L01_TH.jpg",
            "full_url": "http://nrl.ourpreviewdomain.com/dist/api/images/broncos_l01.png"
          },
          {
            "id": 14,
            "preview_url": "http://nrl.ourpreviewdomain.com/dist/api/images/thumbnails/BRONCOS/LOSERS/BRO_L02_TH.jpg",
            "full_url": "http://nrl.ourpreviewdomain.com/dist/api/images/broncos_l02.png"
          },
          {
            "id": 15,
            "preview_url": "http://nrl.ourpreviewdomain.com/dist/api/images/thumbnails/BRONCOS/LOSERS/BRO_L03_TH.jpg",
            "full_url": "http://nrl.ourpreviewdomain.com/dist/api/images/broncos_l03.png"
          }
        ]
    },
    {
        "id": 2,
        "name": "BULLDOGS",
        "year": 2015,
        "published_at": "2015-08-05T08:43:21.620Z",
        "image_url_logo": "http://nrl.ourpreviewdomain.com/dist/api/images/teams/BUL_TH.jpg",
        "image_url_bg": "http://nrl.ourpreviewdomain.com/dist/api/images/bulldogs_bg.jpg",
        "winning_images": [
          {
            "id": 2,
            "preview_url": "http://nrl.ourpreviewdomain.com/dist/api/images/thumbnails/BULLDOGS/WINNRES/BUL_W02_TH.jpg",
            "full_url": "http://nrl.ourpreviewdomain.com/dist/api/images/bulldogs_w02.png"
          },
          {
            "id": 3,
            "preview_url": "http://nrl.ourpreviewdomain.com/dist/api/images/thumbnails/BULLDOGS/WINNRES/BUL_W03_TH.jpg",
            "full_url": "http://nrl.ourpreviewdomain.com/dist/api/images/bulldogs_w03.png"
          },
          {
            "id": 4,
            "preview_url": "http://nrl.ourpreviewdomain.com/dist/api/images/thumbnails/BULLDOGS/WINNRES/BUL_W04_TH.jpg",
            "full_url": "http://nrl.ourpreviewdomain.com/dist/api/images/bulldogs_w04.png"
          },
          {
            "id": 5,
            "preview_url": "http://nrl.ourpreviewdomain.com/dist/api/images/thumbnails/BULLDOGS/WINNRES/BUL_W05_TH.jpg",
            "full_url": "http://nrl.ourpreviewdomain.com/dist/api/images/bulldogs_w05.png"
          }
        ],
        "losing_images": [
          {
            "id": 13,
            "preview_url": "http://nrl.ourpreviewdomain.com/dist/api/images/thumbnails/BULLDOGS/LOSERS/BUL_L01_TH.jpg",
            "full_url": "http://nrl.ourpreviewdomain.com/dist/api/images/bulldogs_l01.png"
          },
          {
            "id": 14,
            "preview_url": "http://nrl.ourpreviewdomain.com/dist/api/images/thumbnails/BULLDOGS/LOSERS/BUL_L02_TH.jpg",
            "full_url": "http://nrl.ourpreviewdomain.com/dist/api/images/bulldogs_l02.png"
          },
          {
            "id": 15,
            "preview_url": "http://nrl.ourpreviewdomain.com/dist/api/images/thumbnails/BULLDOGS/LOSERS/BUL_L03_TH.jpg",
            "full_url": "http://nrl.ourpreviewdomain.com/dist/api/images/bulldogs_l03.png"
          },
          {
            "id": 17,
            "preview_url": "http://nrl.ourpreviewdomain.com/dist/api/images/thumbnails/BULLDOGS/LOSERS/BUL_L05_TH.jpg",
            "full_url": "http://nrl.ourpreviewdomain.com/dist/api/images/bulldogs_l05.png"
          }
        ]
    },
    {
        "id": 3,
        "name": "COWBOYS",
        "year": 2015,
        "published_at": "2015-08-05T08:40:51.620Z",
        "image_url_logo": "http://nrl.ourpreviewdomain.com/dist/api/images/teams/COW_TH.jpg",
        "image_url_bg": "http://nrl.ourpreviewdomain.com/dist/api/images/cowboys_bg.jpg",
        "winning_images": [
          {
            "id": 1,
            "preview_url": "http://nrl.ourpreviewdomain.com/dist/api/images/thumbnails/COWBOYS/Winners/COW_W01_TH.jpg",
            "full_url": "http://nrl.ourpreviewdomain.com/dist/api/images/cowboys_w01.png"
          },
          {
            "id": 2,
            "preview_url": "http://nrl.ourpreviewdomain.com/dist/api/images/thumbnails/COWBOYS/Winners/COW_W02_TH.jpg",
            "full_url": "http://nrl.ourpreviewdomain.com/dist/api/images/cowboys_w02.png"
          },
          {
            "id": 3,
            "preview_url": "http://nrl.ourpreviewdomain.com/dist/api/images/thumbnails/COWBOYS/Winners/COW_W03_TH.jpg",
            "full_url": "http://nrl.ourpreviewdomain.com/dist/api/images/cowboys_w03.png"
          },
          {
            "id": 4,
            "preview_url": "http://nrl.ourpreviewdomain.com/dist/api/images/thumbnails/COWBOYS/Winners/COW_W04_TH.jpg",
            "full_url": "http://nrl.ourpreviewdomain.com/dist/api/images/cowboys_w04.png"
          },
          {
            "id": 5,
            "preview_url": "http://nrl.ourpreviewdomain.com/dist/api/images/thumbnails/COWBOYS/Winners/COW_W05_TH.jpg",
            "full_url": "http://nrl.ourpreviewdomain.com/dist/api/images/cowboys_w05.png"
          }
        ],
        "losing_images": [
          {
            "id": 3,
            "preview_url": "http://nrl.ourpreviewdomain.com/dist/api/images/thumbnails/COWBOYS/Losers/COW_L01_TH.jpg",
            "full_url": "http://nrl.ourpreviewdomain.com/dist/api/images/cowboys_l01.png"
          },
          {
            "id": 4,
            "preview_url": "http://nrl.ourpreviewdomain.com/dist/api/images/thumbnails/COWBOYS/Losers/COW_L02_TH.jpg",
            "full_url": "http://nrl.ourpreviewdomain.com/dist/api/images/cowboys_l02.png"
          },
          {
            "id": 5,
            "preview_url": "http://nrl.ourpreviewdomain.com/dist/api/images/thumbnails/COWBOYS/Losers/COW_L03_TH.jpg",
            "full_url": "http://nrl.ourpreviewdomain.com/dist/api/images/cowboys_l03.png"
          },
          {
            "id": 6,
            "preview_url": "http://nrl.ourpreviewdomain.com/dist/api/images/thumbnails/COWBOYS/Losers/COW_L04_TH.jpg",
            "full_url": "http://nrl.ourpreviewdomain.com/dist/api/images/cowboys_l04.png"
          },
          {
            "id": 7,
            "preview_url": "http://nrl.ourpreviewdomain.com/dist/api/images/thumbnails/COWBOYS/Losers/COW_L05_TH.jpg",
            "full_url": "http://nrl.ourpreviewdomain.com/dist/api/images/cowboys_l05.png"
          }
        ]
    },
    {
        "id": 4,
        "name": "DRAGONS",
        "year": 2015,
        "published_at": "2015-08-05T08:40:51.620Z",
        "image_url_logo": "http://nrl.ourpreviewdomain.com/dist/api/images/teams/DRA_TH.jpg",
        "image_url_bg": "http://nrl.ourpreviewdomain.com/dist/api/images/dragons_bg.jpg",
        "winning_images": [
          {
            "id": 1,
            "preview_url": "http://nrl.ourpreviewdomain.com/dist/api/images/thumbnails/DRAGONS/Winners/DRA_W01_TH.jpg",
            "full_url": "http://nrl.ourpreviewdomain.com/dist/api/images/dragons_w01.png"
          },
          {
            "id": 2,
            "preview_url": "http://nrl.ourpreviewdomain.com/dist/api/images/thumbnails/DRAGONS/Winners/DRA_W02_TH.jpg",
            "full_url": "http://nrl.ourpreviewdomain.com/dist/api/images/dragons_w02.png"
          },
          {
            "id": 3,
            "preview_url": "http://nrl.ourpreviewdomain.com/dist/api/images/thumbnails/DRAGONS/Winners/DRA_W03_TH.jpg",
            "full_url": "http://nrl.ourpreviewdomain.com/dist/api/images/dragons_w03.png"
          },
          {
            "id": 5,
            "preview_url": "http://nrl.ourpreviewdomain.com/dist/api/images/thumbnails/DRAGONS/Winners/DRA_W05_TH.jpg",
            "full_url": "http://nrl.ourpreviewdomain.com/dist/api/images/dragons_w05.png"
          }
        ],
        "losing_images": [
          {
            "id": 13,
            "preview_url": "http://nrl.ourpreviewdomain.com/dist/api/images/thumbnails/DRAGONS/Losers/DRA_L01_TH.jpg",
            "full_url": "http://nrl.ourpreviewdomain.com/dist/api/images/dragons_l01.png"
          },
          {
            "id": 15,
            "preview_url": "http://nrl.ourpreviewdomain.com/dist/api/images/thumbnails/DRAGONS/Losers/DRA_L03_TH.jpg",
            "full_url": "http://nrl.ourpreviewdomain.com/dist/api/images/dragons_l03.png"
          },
          {
            "id": 16,
            "preview_url": "http://nrl.ourpreviewdomain.com/dist/api/images/thumbnails/DRAGONS/Losers/DRA_L04_TH.jpg",
            "full_url": "http://nrl.ourpreviewdomain.com/dist/api/images/dragons_l04.png"
          },
          {
            "id": 17,
            "preview_url": "http://nrl.ourpreviewdomain.com/dist/api/images/thumbnails/DRAGONS/Losers/DRA_L05_TH.jpg",
            "full_url": "http://nrl.ourpreviewdomain.com/dist/api/images/dragons_l05.png"
          }
        ]
    },
    {
        "id": 5,
        "name": "RABBITOHS",
        "year": 2015,
        "published_at": "2015-08-05T08:40:51.620Z",
        "image_url_logo": "http://nrl.ourpreviewdomain.com/dist/api/images/teams/RAB_TH.jpg",
        "image_url_bg": "http://nrl.ourpreviewdomain.com/dist/api/images/rabbitohs_bg.jpg",
        "winning_images": [
          {
            "id": 1,
            "preview_url": "http://nrl.ourpreviewdomain.com/dist/api/images/thumbnails/RABBITOHS/Winners/RAB_W01_TH.jpg",
            "full_url": "http://nrl.ourpreviewdomain.com/dist/api/images/rabbitohs_w01.png"
          },
          {
            "id": 2,
            "preview_url": "http://nrl.ourpreviewdomain.com/dist/api/images/thumbnails/RABBITOHS/Winners/RAB_W02_TH.jpg",
            "full_url": "http://nrl.ourpreviewdomain.com/dist/api/images/rabbitohs_w02.png"
          },
          {
            "id": 3,
            "preview_url": "http://nrl.ourpreviewdomain.com/dist/api/images/thumbnails/RABBITOHS/Winners/RAB_W03_TH.jpg",
            "full_url": "http://nrl.ourpreviewdomain.com/dist/api/images/rabbitohs_w03.png"
          },
          {
            "id": 4,
            "preview_url": "http://nrl.ourpreviewdomain.com/dist/api/images/thumbnails/RABBITOHS/Winners/RAB_W04_TH.jpg",
            "full_url": "http://nrl.ourpreviewdomain.com/dist/api/images/rabbitohs_w04.png"
          },
          {
            "id": 5,
            "preview_url": "http://nrl.ourpreviewdomain.com/dist/api/images/thumbnails/RABBITOHS/Winners/RAB_W05_TH.jpg",
            "full_url": "http://nrl.ourpreviewdomain.com/dist/api/images/rabbitohs_w05.png"
          }
        ],
        "losing_images": [
          {
            "id": 13,
            "preview_url": "http://nrl.ourpreviewdomain.com/dist/api/images/thumbnails/RABBITOHS/Losers/RAB_L01_TH.jpg",
            "full_url": "http://nrl.ourpreviewdomain.com/dist/api/images/rabbitohs_l01.png"
          },
          {
            "id": 14,
            "preview_url": "http://nrl.ourpreviewdomain.com/dist/api/images/thumbnails/RABBITOHS/Losers/RAB_L02_TH.jpg",
            "full_url": "http://nrl.ourpreviewdomain.com/dist/api/images/rabbitohs_l02.png"
          },
          {
            "id": 15,
            "preview_url": "http://nrl.ourpreviewdomain.com/dist/api/images/thumbnails/RABBITOHS/Losers/RAB_L03_TH.jpg",
            "full_url": "http://nrl.ourpreviewdomain.com/dist/api/images/rabbitohs_l03.png"
          },
          {
            "id": 16,
            "preview_url": "http://nrl.ourpreviewdomain.com/dist/api/images/thumbnails/RABBITOHS/Losers/RAB_L04_TH.jpg",
            "full_url": "http://nrl.ourpreviewdomain.com/dist/api/images/rabbitohs_l04.png"
          },
          {
            "id": 17,
            "preview_url": "http://nrl.ourpreviewdomain.com/dist/api/images/thumbnails/RABBITOHS/Losers/RAB_L05_TH.jpg",
            "full_url": "http://nrl.ourpreviewdomain.com/dist/api/images/rabbitohs_l05.png"
          }
        ]
    },
    {
        "id": 6,
        "name": "ROOSTERS",
        "year": 2015,
        "published_at": "2015-08-05T08:40:51.620Z",
        "image_url_logo": "http://nrl.ourpreviewdomain.com/dist/api/images/teams/ROO_TH.jpg",
        "image_url_bg": "http://nrl.ourpreviewdomain.com/dist/api/images/roosters_bg.jpg",
        "winning_images": [
          {
            "id": 1,
            "preview_url": "http://nrl.ourpreviewdomain.com/dist/api/images/thumbnails/ROOSTERS/Winners/ROO_W01_TH.jpg",
            "full_url": "http://nrl.ourpreviewdomain.com/dist/api/images/roosters_w01.png"
          },
          {
            "id": 2,
            "preview_url": "http://nrl.ourpreviewdomain.com/dist/api/images/thumbnails/ROOSTERS/Winners/ROO_W02_TH.jpg",
            "full_url": "http://nrl.ourpreviewdomain.com/dist/api/images/roosters_w02.png"
          },
          {
            "id": 3,
            "preview_url": "http://nrl.ourpreviewdomain.com/dist/api/images/thumbnails/ROOSTERS/Winners/ROO_W03_TH.jpg",
            "full_url": "http://nrl.ourpreviewdomain.com/dist/api/images/roosters_w03.png"
          },
          {
            "id": 4,
            "preview_url": "http://nrl.ourpreviewdomain.com/dist/api/images/thumbnails/ROOSTERS/Winners/ROO_W04_TH.jpg",
            "full_url": "http://nrl.ourpreviewdomain.com/dist/api/images/roosters_w04.png"
          },
          {
            "id": 5,
            "preview_url": "http://nrl.ourpreviewdomain.com/dist/api/images/thumbnails/ROOSTERS/Winners/ROO_W05_TH.jpg",
            "full_url": "http://nrl.ourpreviewdomain.com/dist/api/images/roosters_w05.png"
          }
        ],
        "losing_images": [
          {
            "id": 13,
            "preview_url": "http://nrl.ourpreviewdomain.com/dist/api/images/thumbnails/ROOSTERS/Losers/ROO_L01_TH.jpg",
            "full_url": "http://nrl.ourpreviewdomain.com/dist/api/images/roosters_l01.png"
          },
          {
            "id": 14,
            "preview_url": "http://nrl.ourpreviewdomain.com/dist/api/images/thumbnails/ROOSTERS/Losers/ROO_L02_TH.jpg",
            "full_url": "http://nrl.ourpreviewdomain.com/dist/api/images/roosters_l02.png"
          },
          {
            "id": 15,
            "preview_url": "http://nrl.ourpreviewdomain.com/dist/api/images/thumbnails/ROOSTERS/Losers/ROO_L03_TH.jpg",
            "full_url": "http://nrl.ourpreviewdomain.com/dist/api/images/roosters_l03.png"
          },
          {
            "id": 16,
            "preview_url": "http://nrl.ourpreviewdomain.com/dist/api/images/thumbnails/ROOSTERS/Losers/ROO_L04_TH.jpg",
            "full_url": "http://nrl.ourpreviewdomain.com/dist/api/images/roosters_l04.png"
          },
          {
            "id": 17,
            "preview_url": "http://nrl.ourpreviewdomain.com/dist/api/images/thumbnails/ROOSTERS/Losers/ROO_L05_TH.jpg",
            "full_url": "http://nrl.ourpreviewdomain.com/dist/api/images/roosters_l05.png"
          }
        ]
    },
    {
        "id": 7,
        "name": "SHARKS",
        "year": 2015,
        "published_at": "2015-08-05T08:40:51.620Z",
        "image_url_logo": "http://nrl.ourpreviewdomain.com/dist/api/images/teams/SHA_TH.jpg",
        "image_url_bg": "http://nrl.ourpreviewdomain.com/dist/api/images/sharks_bg.jpg",
        "winning_images": [
          {
            "id": 1,
            "preview_url": "http://nrl.ourpreviewdomain.com/dist/api/images/thumbnails/SHARKS/Winners/SHA_W01_TH.jpg",
            "full_url": "http://nrl.ourpreviewdomain.com/dist/api/images/sharks_w01.png"
          },
          {
            "id": 2,
            "preview_url": "http://nrl.ourpreviewdomain.com/dist/api/images/thumbnails/SHARKS/Winners/SHA_W02_TH.jpg",
            "full_url": "http://nrl.ourpreviewdomain.com/dist/api/images/sharks_w02.png"
          },
          {
            "id": 3,
            "preview_url": "http://nrl.ourpreviewdomain.com/dist/api/images/thumbnails/SHARKS/Winners/SHA_W03_TH.jpg",
            "full_url": "http://nrl.ourpreviewdomain.com/dist/api/images/sharks_w03.png"
          },
          {
            "id": 4,
            "preview_url": "http://nrl.ourpreviewdomain.com/dist/api/images/thumbnails/SHARKS/Winners/SHA_W04_TH.jpg",
            "full_url": "http://nrl.ourpreviewdomain.com/dist/api/images/sharks_w04.png"
          },
          {
            "id": 5,
            "preview_url": "http://nrl.ourpreviewdomain.com/dist/api/images/thumbnails/SHARKS/Winners/SHA_W05_TH.jpg",
            "full_url": "http://nrl.ourpreviewdomain.com/dist/api/images/sharks_w05.png"
          }
        ],
        "losing_images": [
          {
            "id": 13,
            "preview_url": "http://nrl.ourpreviewdomain.com/dist/api/images/thumbnails/SHARKS/Losers/SHA_L01_TH.jpg",
            "full_url": "http://nrl.ourpreviewdomain.com/dist/api/images/sharks_l01.png"
          },
          {
            "id": 14,
            "preview_url": "http://nrl.ourpreviewdomain.com/dist/api/images/thumbnails/SHARKS/Losers/SHA_L02_TH.jpg",
            "full_url": "http://nrl.ourpreviewdomain.com/dist/api/images/sharks_l02.png"
          },
          {
            "id": 16,
            "preview_url": "http://nrl.ourpreviewdomain.com/dist/api/images/thumbnails/SHARKS/Losers/SHA_L04_TH.jpg",
            "full_url": "http://nrl.ourpreviewdomain.com/dist/api/images/sharks_l04.png"
          },
          {
            "id": 17,
            "preview_url": "http://nrl.ourpreviewdomain.com/dist/api/images/thumbnails/SHARKS/Losers/SHA_L05_TH.jpg",
            "full_url": "http://nrl.ourpreviewdomain.com/dist/api/images/sharks_l05.png"
          }
        ]
    },
    {
        "id": 8,
        "name": "STORM",
        "year": 2015,
        "published_at": "2015-08-05T08:40:51.620Z",
        "image_url_logo": "http://nrl.ourpreviewdomain.com/dist/api/images/teams/STO_TH.jpg",
        "image_url_bg": "http://nrl.ourpreviewdomain.com/dist/api/images/storm_bg.jpg",
        "winning_images": [
          {
            "id": 1,
            "preview_url": "http://nrl.ourpreviewdomain.com/dist/api/images/thumbnails/STORM/Winners/STO_W01_TH.jpg",
            "full_url": "http://nrl.ourpreviewdomain.com/dist/api/images/storm_w01.png"
          },
          {
            "id": 2,
            "preview_url": "http://nrl.ourpreviewdomain.com/dist/api/images/thumbnails/STORM/Winners/STO_W02_TH.jpg",
            "full_url": "http://nrl.ourpreviewdomain.com/dist/api/images/storm_w02.png"
          },
          {
            "id": 3,
            "preview_url": "http://nrl.ourpreviewdomain.com/dist/api/images/thumbnails/STORM/Winners/STO_W03_TH.jpg",
            "full_url": "http://nrl.ourpreviewdomain.com/dist/api/images/storm_w03.png"
          },
          {
            "id": 4,
            "preview_url": "http://nrl.ourpreviewdomain.com/dist/api/images/thumbnails/STORM/Winners/STO_W04_TH.jpg",
            "full_url": "http://nrl.ourpreviewdomain.com/dist/api/images/storm_w04.png"
          }
        ],
        "losing_images": [
          {
            "id": 13,
            "preview_url": "http://nrl.ourpreviewdomain.com/dist/api/images/thumbnails/STORM/Losers/STO_L01_TH.jpg",
            "full_url": "http://nrl.ourpreviewdomain.com/dist/api/images/storm_l01.png"
          },
          {
            "id": 14,
            "preview_url": "http://nrl.ourpreviewdomain.com/dist/api/images/thumbnails/STORM/Losers/STO_L02_TH.jpg",
            "full_url": "http://nrl.ourpreviewdomain.com/dist/api/images/storm_l02.png"
          },
          {
            "id": 16,
            "preview_url": "http://nrl.ourpreviewdomain.com/dist/api/images/thumbnails/STORM/Losers/STO_L04_TH.jpg",
            "full_url": "http://nrl.ourpreviewdomain.com/dist/api/images/storm_l04.png"
          },
          {
            "id": 17,
            "preview_url": "http://nrl.ourpreviewdomain.com/dist/api/images/thumbnails/STORM/Losers/STO_L05_TH.jpg",
            "full_url": "http://nrl.ourpreviewdomain.com/dist/api/images/storm_l05.png"
          }
        ]
    },
    {
        "id": 9,
        "name": "EELS",
        "year": 2016,
        "published_at": "2015-08-05T08:40:51.620Z",
        "image_url_logo": "http://nrl.ourpreviewdomain.com/dist/api/images/teams/EEL_TH.jpg",
        "image_url_bg": "http://nrl.ourpreviewdomain.com/dist/api/images/EELS/EEL_BTM01.jpg",
        "winning_images": [
          {
            "id": 1,
            "preview_url": "http://nrl.ourpreviewdomain.com/dist/api/images/thumbnails/EELS/EEL_BTM01_TH.jpg",
            "full_url": "http://nrl.ourpreviewdomain.com/dist/api/images/EELS/EEL_BTM01.jpg"
          },
          {
            "id": 2,
            "preview_url": "http://nrl.ourpreviewdomain.com/dist/api/images/thumbnails/EELS/EEL_BTM02_TH.jpg",
            "full_url": "http://nrl.ourpreviewdomain.com/dist/api/images/EELS/EEL_BTM02.jpg"
          },
          {
            "id": 3,
            "preview_url": "http://nrl.ourpreviewdomain.com/dist/api/images/thumbnails/EELS/EEL_BTM03_TH.jpg",
            "full_url": "http://nrl.ourpreviewdomain.com/dist/api/images/EELS/EEL_BTM03.jpg"
          },
          {
            "id": 4,
            "preview_url": "http://nrl.ourpreviewdomain.com/dist/api/images/thumbnails/EELS/EEL_BTM04_TH.jpg",
            "full_url": "http://nrl.ourpreviewdomain.com/dist/api/images/EELS/EEL_BTM04.jpg"
          },
          {
            "id": 5,
            "preview_url": "http://nrl.ourpreviewdomain.com/dist/api/images/thumbnails/EELS/EEL_BTM05_TH.jpg",
            "full_url": "http://nrl.ourpreviewdomain.com/dist/api/images/EELS/EEL_BTM05.jpg"
          }
        ]
    },
    {
        "id": 10,
        "name": "KNIGHTS",
        "year": 2016,
        "published_at": "2015-08-05T08:40:51.620Z",
        "image_url_logo": "http://nrl.ourpreviewdomain.com/dist/api/images/teams/KNI_TH.jpg",
        "image_url_bg": "http://nrl.ourpreviewdomain.com/dist/api/images/KNIGHTS/KNI_BTM01.jpg",
        "winning_images": [
          {
            "id": 1,
            "preview_url": "http://nrl.ourpreviewdomain.com/dist/api/images/thumbnails/KNIGHTS/KNI_BTM01_TH.jpg",
            "full_url": "http://nrl.ourpreviewdomain.com/dist/api/images/KNIGHTS/KNI_BTM01.jpg"
          },
          {
            "id": 2,
            "preview_url": "http://nrl.ourpreviewdomain.com/dist/api/images/thumbnails/KNIGHTS/KNI_BTM02_TH.jpg",
            "full_url": "http://nrl.ourpreviewdomain.com/dist/api/images/KNIGHTS/KNI_BTM02.jpg"
          },
          {
            "id": 3,
            "preview_url": "http://nrl.ourpreviewdomain.com/dist/api/images/thumbnails/KNIGHTS/KNI_BTM03_TH.jpg",
            "full_url": "http://nrl.ourpreviewdomain.com/dist/api/images/KNIGHTS/KNI_BTM03.jpg"
          },
          {
            "id": 5,
            "preview_url": "http://nrl.ourpreviewdomain.com/dist/api/images/thumbnails/KNIGHTS/KNI_BTM05_TH.jpg",
            "full_url": "http://nrl.ourpreviewdomain.com/dist/api/images/KNIGHTS/KNI_BTM05.jpg"
          }
        ]
    },
    {
        "id": 11,
        "name": "MANLY",
        "year": 2016,
        "published_at": "2015-08-05T08:40:51.620Z",
        "image_url_logo": "http://nrl.ourpreviewdomain.com/dist/api/images/teams/MAN_TH.jpg",
        "image_url_bg": "http://nrl.ourpreviewdomain.com/dist/api/images/MANLY/MAN_BTM01.jpg",
        "winning_images": [
          {
            "id": 1,
            "preview_url": "http://nrl.ourpreviewdomain.com/dist/api/images/thumbnails/MANLY/MAN_BTM01_TH.jpg",
            "full_url": "http://nrl.ourpreviewdomain.com/dist/api/images/MANLY/MAN_BTM01.jpg"
          },
          {
            "id": 2,
            "preview_url": "http://nrl.ourpreviewdomain.com/dist/api/images/thumbnails/MANLY/MAN_BTM02_TH.jpg",
            "full_url": "http://nrl.ourpreviewdomain.com/dist/api/images/MANLY/MAN_BTM02.jpg"
          },
          {
            "id": 3,
            "preview_url": "http://nrl.ourpreviewdomain.com/dist/api/images/thumbnails/MANLY/MAN_BTM03_TH.jpg",
            "full_url": "http://nrl.ourpreviewdomain.com/dist/api/images/MANLY/MAN_BTM03.jpg"
          },
          {
            "id": 4,
            "preview_url": "http://nrl.ourpreviewdomain.com/dist/api/images/thumbnails/MANLY/MAN_BTM04_TH.jpg",
            "full_url": "http://nrl.ourpreviewdomain.com/dist/api/images/MANLY/MAN_BTM04.jpg"
          },
          {
            "id": 5,
            "preview_url": "http://nrl.ourpreviewdomain.com/dist/api/images/thumbnails/MANLY/MAN_BTM05_TH.jpg",
            "full_url": "http://nrl.ourpreviewdomain.com/dist/api/images/MANLY/MAN_BTM05.jpg"
          }
        ]
    },
    {
        "id": 12,
        "name": "PANTHERS",
        "year": 2016,
        "published_at": "2015-08-05T08:40:51.620Z",
        "image_url_logo": "http://nrl.ourpreviewdomain.com/dist/api/images/teams/PAN_TH.jpg",
        "image_url_bg": "http://nrl.ourpreviewdomain.com/dist/api/images/PANTHERS/PAN_BTM01.jpg",
        "winning_images": [
          {
            "id": 1,
            "preview_url": "http://nrl.ourpreviewdomain.com/dist/api/images/thumbnails/PANTHERS/PAN_BTM01_TH.jpg",
            "full_url": "http://nrl.ourpreviewdomain.com/dist/api/images/PANTHERS/PAN_BTM01.jpg"
          },
          {
            "id": 2,
            "preview_url": "http://nrl.ourpreviewdomain.com/dist/api/images/thumbnails/PANTHERS/PAN_BTM02_TH.jpg",
            "full_url": "http://nrl.ourpreviewdomain.com/dist/api/images/PANTHERS/PAN_BTM02.jpg"
          },
          {
            "id": 3,
            "preview_url": "http://nrl.ourpreviewdomain.com/dist/api/images/thumbnails/PANTHERS/PAN_BTM03_TH.jpg",
            "full_url": "http://nrl.ourpreviewdomain.com/dist/api/images/PANTHERS/PAN_BTM03.jpg"
          },
          {
            "id": 4,
            "preview_url": "http://nrl.ourpreviewdomain.com/dist/api/images/thumbnails/PANTHERS/PAN_BTM04_TH.jpg",
            "full_url": "http://nrl.ourpreviewdomain.com/dist/api/images/PANTHERS/PAN_BTM04.jpg"
          },
          {
            "id": 5,
            "preview_url": "http://nrl.ourpreviewdomain.com/dist/api/images/thumbnails/PANTHERS/PAN_BTM05_TH.jpg",
            "full_url": "http://nrl.ourpreviewdomain.com/dist/api/images/PANTHERS/PAN_BTM05.jpg"
          }
        ]
    },
    {
        "id": 13,
        "name": "RAIDERS",
        "year": 2016,
        "published_at": "2015-08-05T08:40:51.620Z",
        "image_url_logo": "http://nrl.ourpreviewdomain.com/dist/api/images/teams/RAI_TH.jpg",
        "image_url_bg": "http://nrl.ourpreviewdomain.com/dist/api/images/RAIDERS/RAI_BTM01.jpg",
        "winning_images": [
          {
            "id": 1,
            "preview_url": "http://nrl.ourpreviewdomain.com/dist/api/images/thumbnails/RAIDERS/RAI_BTM01_TH.jpg",
            "full_url": "http://nrl.ourpreviewdomain.com/dist/api/images/RAIDERS/RAI_BTM01.jpg"
          },
          {
            "id": 2,
            "preview_url": "http://nrl.ourpreviewdomain.com/dist/api/images/thumbnails/RAIDERS/RAI_BTM02_TH.jpg",
            "full_url": "http://nrl.ourpreviewdomain.com/dist/api/images/RAIDERS/RAI_BTM02.jpg"
          },
          {
            "id": 3,
            "preview_url": "http://nrl.ourpreviewdomain.com/dist/api/images/thumbnails/RAIDERS/RAI_BTM03_TH.jpg",
            "full_url": "http://nrl.ourpreviewdomain.com/dist/api/images/RAIDERS/RAI_BTM03.jpg"
          },
          {
            "id": 4,
            "preview_url": "http://nrl.ourpreviewdomain.com/dist/api/images/thumbnails/RAIDERS/RAI_BTM04_TH.jpg",
            "full_url": "http://nrl.ourpreviewdomain.com/dist/api/images/RAIDERS/RAI_BTM04.jpg"
          },
          {
            "id": 5,
            "preview_url": "http://nrl.ourpreviewdomain.com/dist/api/images/thumbnails/RAIDERS/RAI_BTM05_TH.jpg",
            "full_url": "http://nrl.ourpreviewdomain.com/dist/api/images/RAIDERS/RAI_BTM05.jpg"
          }
        ]
    },
    {
        "id": 14,
        "name": "TIGERS",
        "year": 2016,
        "published_at": "2015-08-05T08:40:51.620Z",
        "image_url_logo": "http://nrl.ourpreviewdomain.com/dist/api/images/teams/TIG_TH.jpg",
        "image_url_bg": "http://nrl.ourpreviewdomain.com/dist/api/images/TIGERS/TIG_BTM01.jpg",
        "winning_images": [
          {
            "id": 1,
            "preview_url": "http://nrl.ourpreviewdomain.com/dist/api/images/thumbnails/TIGERS/TIG_BTM01_TH.jpg",
            "full_url": "http://nrl.ourpreviewdomain.com/dist/api/images/TIGERS/TIG_BTM01.jpg"
          },
          {
            "id": 2,
            "preview_url": "http://nrl.ourpreviewdomain.com/dist/api/images/thumbnails/TIGERS/TIG_BTM02_TH.jpg",
            "full_url": "http://nrl.ourpreviewdomain.com/dist/api/images/TIGERS/TIG_BTM02.jpg"
          },
          {
            "id": 3,
            "preview_url": "http://nrl.ourpreviewdomain.com/dist/api/images/thumbnails/TIGERS/TIG_BTM03_TH.jpg",
            "full_url": "http://nrl.ourpreviewdomain.com/dist/api/images/TIGERS/TIG_BTM03.jpg"
          },
          {
            "id": 4,
            "preview_url": "http://nrl.ourpreviewdomain.com/dist/api/images/thumbnails/TIGERS/TIG_BTM04_TH.jpg",
            "full_url": "http://nrl.ourpreviewdomain.com/dist/api/images/TIGERS/TIG_BTM04.jpg"
          },
          {
            "id": 5,
            "preview_url": "http://nrl.ourpreviewdomain.com/dist/api/images/thumbnails/TIGERS/TIG_BTM05_TH.jpg",
            "full_url": "http://nrl.ourpreviewdomain.com/dist/api/images/TIGERS/TIG_BTM05.jpg"
          }
        ]
    },
    {
        "id": 15,
        "name": "TITANS",
        "year": 2016,
        "published_at": "2015-08-05T08:40:51.620Z",
        "image_url_logo": "http://nrl.ourpreviewdomain.com/dist/api/images/teams/TIT_TH.jpg",
        "image_url_bg": "http://nrl.ourpreviewdomain.com/dist/api/images/TITANS/TIT_BTM01.jpg",
        "winning_images": [
          {
            "id": 1,
            "preview_url": "http://nrl.ourpreviewdomain.com/dist/api/images/thumbnails/TITANS/TIT_BTM01_TH.jpg",
            "full_url": "http://nrl.ourpreviewdomain.com/dist/api/images/TITANS/TIT_BTM01.jpg"
          },
          {
            "id": 2,
            "preview_url": "http://nrl.ourpreviewdomain.com/dist/api/images/thumbnails/TITANS/TIT_BTM02_TH.jpg",
            "full_url": "http://nrl.ourpreviewdomain.com/dist/api/images/TITANS/TIT_BTM02.jpg"
          },
          {
            "id": 3,
            "preview_url": "http://nrl.ourpreviewdomain.com/dist/api/images/thumbnails/TITANS/TIT_BTM03_TH.jpg",
            "full_url": "http://nrl.ourpreviewdomain.com/dist/api/images/TITANS/TIT_BTM03.jpg"
          },
          {
            "id": 4,
            "preview_url": "http://nrl.ourpreviewdomain.com/dist/api/images/thumbnails/TITANS/TIT_BTM04_TH.jpg",
            "full_url": "http://nrl.ourpreviewdomain.com/dist/api/images/TITANS/TIT_BTM04.jpg"
          },
          {
            "id": 5,
            "preview_url": "http://nrl.ourpreviewdomain.com/dist/api/images/thumbnails/TITANS/TIT_BTM05_TH.jpg",
            "full_url": "http://nrl.ourpreviewdomain.com/dist/api/images/TITANS/TIT_BTM05.jpg"
          }
        ]
    },
    {
        "id": 16,
        "name": "WARRIORS",
        "year": 2016,
        "published_at": "2015-08-05T08:40:51.620Z",
        "image_url_logo": "http://nrl.ourpreviewdomain.com/dist/api/images/teams/WAR_TH.jpg",
        "image_url_bg": "http://nrl.ourpreviewdomain.com/dist/api/images/WARRIORS/WAR_BTM01.jpg",
        "winning_images": [
          {
            "id": 1,
            "preview_url": "http://nrl.ourpreviewdomain.com/dist/api/images/thumbnails/WARRIORS/WAR_BTM01_TH.jpg",
            "full_url": "http://nrl.ourpreviewdomain.com/dist/api/images/WARRIORS/WAR_BTM01.jpg"
          },
          {
            "id": 2,
            "preview_url": "http://nrl.ourpreviewdomain.com/dist/api/images/thumbnails/WARRIORS/WAR_BTM02_TH.jpg",
            "full_url": "http://nrl.ourpreviewdomain.com/dist/api/images/WARRIORS/WAR_BTM02.jpg"
          },
          {
            "id": 3,
            "preview_url": "http://nrl.ourpreviewdomain.com/dist/api/images/thumbnails/WARRIORS/WAR_BTM03_TH.jpg",
            "full_url": "http://nrl.ourpreviewdomain.com/dist/api/images/WARRIORS/WAR_BTM03.jpg"
          },
          {
            "id": 4,
            "preview_url": "http://nrl.ourpreviewdomain.com/dist/api/images/thumbnails/WARRIORS/WAR_BTM04_TH.jpg",
            "full_url": "http://nrl.ourpreviewdomain.com/dist/api/images/WARRIORS/WAR_BTM04.jpg"
          },
          {
            "id": 5,
            "preview_url": "http://nrl.ourpreviewdomain.com/dist/api/images/thumbnails/WARRIORS/WAR_BTM05_TH.jpg",
            "full_url": "http://nrl.ourpreviewdomain.com/dist/api/images/WARRIORS/WAR_BTM05.jpg"
          }
        ]
    }
]
